{
  "collectionName": "components_parameter_number_objects",
  "info": {
    "name": "number_object",
    "icon": "anchor"
  },
  "options": {},
  "attributes": {
    "icon": {
      "type": "string"
    },
    "amount": {
      "type": "string"
    },
    "description": {
      "type": "string"
    }
  }
}
